<Qucs Schematic 0.0.20>
<Properties>
  <View=158,10,2985,2880,0.7415,1116,1454>
  <Grid=10,10,1>
  <DataSet=uhf-tx.dat>
  <DataDisplay=uhf-tx.dpl>
  <OpenDisplay=1>
  <Script=uhf-tx.m>
  <RunScript=0>
  <showFrame=0>
  <FrameText0=Title>
  <FrameText1=Drawn By:>
  <FrameText2=Date:>
  <FrameText3=Revision:>
</Properties>
<Symbol>
  <.ID -20 -16 SUB>
  <Line -20 20 40 0 #000080 2 1>
  <Line 20 20 0 -40 #000080 2 1>
  <Line -20 -20 40 0 #000080 2 1>
  <Line -20 20 0 -40 #000080 2 1>
</Symbol>
<Components>
  <GND *51 5 910 460 0 0 0 0>
  <Pac P10 1 770 460 18 -26 0 1 "5" 1 "50 Ohm" 1 "-100 dBm" 0 "2220 MHz" 0 "26.85" 0>
  <GND *52 5 770 530 0 0 0 0>
  <Pac P11 1 1050 460 18 -26 0 1 "6" 1 "50 Ohm" 1 "-100 dBm" 0 "2220 MHz" 0 "26.85" 0>
  <GND *53 5 1050 530 0 0 0 0>
  <SPfile PA2 1 910 430 -26 -38 0 0 "TQP7M9106.s2p" 0 "rectangular" 0 "linear" 0 "open" 0 "2" 0>
  <GND *54 5 1510 1210 0 0 0 0>
  <C C23 1 1460 1150 -26 17 0 0 "100 pF" 1 "" 0 "neutral" 0>
  <C C24 1 1460 1090 -26 17 0 0 "1 nF" 1 "" 0 "neutral" 0>
  <C C25 1 1460 1020 -26 17 0 0 "10 uF" 1 "" 0 "neutral" 0>
  <SPfile PA3 1 1250 1330 -26 -38 0 0 "TQP7M9106.s2p" 0 "rectangular" 0 "linear" 0 "open" 0 "2" 0>
  <L L18 1 1390 1250 10 -26 0 1 "18 nH" 1 "" 0>
  <.Opt Opt1 0 340 690 0 45 0 0 "Sim=SP1" 0 "DE=8|700|2|50|0.85|1|3|1e-6|10|100" 0 "Var=L1|yes|1e-09|1e-9|20e-9|LIN_DOUBLE" 0 "Var=L2|yes|1e-09|1e-9|20e-9|LIN_DOUBLE" 0 "Var=C1|yes|1e-12|0.5e-12|150e-12|LIN_DOUBLE" 0 "Var=C2|yes|1e-12|0.5e-12|150e-12|LIN_DOUBLE" 0 "Goal=input_rl|GE|-10" 0 "Goal=output_rl|GE|-10" 0 "Goal=gain|GE|23" 0>
  <GND *67 5 550 1540 0 0 0 0>
  <Pac P13 1 550 1470 18 -26 0 1 "3" 1 "50 Ohm" 1 "0 dBm" 0 "1 GHz" 0 "26.85" 0>
  <GND *62 5 1250 1420 0 0 0 0>
  <Eqn Eqn7 1 370 530 -31 19 0 0 "S43_dB=dB(S[4,3])" 1 "y=-10*dB(S[4,3])/dB(S[4,3])" 1 "S33_dB=dB(S[3,3])" 1 "S44_dB=dB(S[4,4])" 1 "S34_dB=dB(S[3,4])" 1 "yes" 0>
  <Eqn Eqn8 1 370 790 -31 15 0 0 "input_rl=max(dB(S[3,3]), 400e06:440e06)" 1 "output_rl=max(dB(S[4,4]), 400e06:440e06)" 1 "gain=min(dB(S[4,3]),400e06:440e06)" 1 "yes" 0>
  <C C35 1 710 1330 -26 17 0 0 "2pF" 1 "" 0 "neutral" 0>
  <.SP SP1 1 350 50 0 91 0 0 "log" 1 "300MHz" 1 "600MHz" 1 "400" 1 "no" 0 "1" 0 "2" 0 "no" 0 "no" 0>
  <C C39 1 1470 1330 -20 -53 0 2 "33 pF" 1 "" 0 "neutral" 0>
  <L L39 1 1520 1490 10 -26 0 1 "5.6nH" 1 "" 0>
  <L L29 1 2016 1327 -26 10 0 0 "47 nH" 1 "" 0>
  <L L28 1 866 1327 -26 10 0 0 "68 nH" 1 "" 0>
  <C C38 1 1080 1330 -26 17 0 0 "39 pF" 1 "" 0 "neutral" 0>
  <L L38 1 1020 1490 5 -20 0 1 "3.2nH" 1 "" 0>
  <SPfile X1 1 2190 1330 -26 -59 0 0 "LFCG-490+_Plus25degC.s2p" 0 "rectangular" 0 "linear" 0 "open" 0 "2" 0>
  <GND * 5 2190 1420 0 0 0 0>
  <GND * 5 2410 1420 0 0 0 0>
  <SPfile X2 1 2410 1360 -26 -89 0 0 "F2972_RF1_ON_EN_1_VCTL_0_50Ohms.s3p" 0 "rectangular" 0 "linear" 0 "open" 0 "3" 0>
  <Pac P15 1 2510 1370 18 -26 0 1 "1" 1 "50 Ohm" 1 "-100 dBm" 0 "1 GHz" 0 "26.85" 0>
  <GND * 5 2510 1440 0 0 0 0>
  <GND *68 5 2380 1760 0 0 0 0>
  <Pac P14 1 2380 1710 18 -26 0 1 "4" 1 "50 Ohm" 1 "-100 dBm" 0 "1 GHz" 0 "26.85" 0>
  <C C40 1 2380 1560 17 -26 0 1 "100 pF" 1 "" 0 "neutral" 0>
  <C C36 1 1684 1327 -26 17 0 0 "3.3 pF" 1 "" 0 "neutral" 0>
  <SUBST JLCPCB_2116 1 370 310 -30 24 0 0 "4.16" 1 "0.1164 mm" 1 "0.035 mm" 1 "0.015" 1 "1.72e-8" 1 "0" 1>
  <MLIN MS6 1 620 1330 -26 -91 0 2 "JLCPCB_2116" 1 "0.18 mm" 1 "1 mm" 1 "Hammerstad" 0 "Kirschning" 0 "26.85" 0>
  <MLIN MS5 1 790 1330 -26 -91 0 2 "JLCPCB_2116" 1 "0.18 mm" 1 "1.3mm" 1 "Hammerstad" 0 "Kirschning" 0 "26.85" 0>
  <MLIN MS4 1 946 1323 -26 -91 0 2 "JLCPCB_2116" 1 "0.18 mm" 1 "1.2 mm" 1 "Hammerstad" 0 "Kirschning" 0 "26.85" 0>
  <MVIA MS3 1 1030 1540 20 0 0 0 "JLCPCB_2116" 1 "0.4 mm" 1 "26.85" 0>
  <MLIN MS1 1 1156 1333 -26 -91 1 0 "JLCPCB_2116" 1 "0.18 mm" 1 "1.3 mm" 1 "Hammerstad" 0 "Kirschning" 0 "26.85" 0>
  <MLIN MS7 1 1336 1333 -41 23 1 2 "JLCPCB_2116" 1 "0.18 mm" 1 "1.3 mm" 1 "Hammerstad" 0 "Kirschning" 0 "26.85" 0>
  <MVIA MS14 1 1540 1530 20 0 0 0 "JLCPCB_2116" 1 "0.4 mm" 1 "26.85" 0>
  <MLIN MS13 1 1519 1404 28 -26 0 1 "JLCPCB_2116" 1 "0.18 mm" 1 "1.0 mm" 1 "Hammerstad" 0 "Kirschning" 0 "26.85" 0>
  <MLIN MS9 1 1576 1333 -28 -92 1 0 "JLCPCB_2116" 1 "0.18 mm" 1 "1.3 mm" 1 "Hammerstad" 0 "Kirschning" 0 "26.85" 0>
  <MLIN MS12 1 1940 1330 -54 -84 0 0 "JLCPCB_2116" 1 "0.18 mm" 1 "1.5 mm" 1 "Hammerstad" 0 "Kirschning" 0 "26.85" 0>
  <MLIN MS11 1 2090 1330 -54 -84 0 0 "JLCPCB_2116" 1 "0.18 mm" 1 "1.3 mm" 1 "Hammerstad" 0 "Kirschning" 0 "26.85" 0>
  <MLIN MS15 1 2270 1330 -54 -84 0 0 "JLCPCB_2116" 1 "0.18 mm" 1 "1.62 mm" 1 "Hammerstad" 0 "Kirschning" 0 "26.85" 0>
  <MLIN MS16 1 2380 1500 -152 -54 0 1 "JLCPCB_2116" 1 "0.18 mm" 1 "2 mm" 1 "Hammerstad" 0 "Kirschning" 0 "26.85" 0>
  <MLIN MS17 1 2380 1620 -152 -54 0 1 "JLCPCB_2116" 1 "0.18 mm" 1 "3 mm" 1 "Hammerstad" 0 "Kirschning" 0 "26.85" 0>
  <MLIN MS2 1 1020 1410 -170 -26 1 1 "JLCPCB_2116" 1 "0.18 mm" 1 "1.1 mm" 1 "Hammerstad" 0 "Kirschning" 0 "26.85" 0>
</Components>
<Wires>
  <770 490 770 530 "" 0 0 0 "">
  <1050 490 1050 530 "" 0 0 0 "">
  <940 430 1050 430 "" 0 0 0 "">
  <770 430 880 430 "" 0 0 0 "">
  <1510 1180 1510 1210 "" 0 0 0 "">
  <1430 1020 1430 1090 "" 0 0 0 "">
  <1490 1180 1510 1180 "" 0 0 0 "">
  <1490 1020 1490 1090 "" 0 0 0 "">
  <1430 1150 1430 1180 "" 0 0 0 "">
  <1490 1150 1490 1180 "" 0 0 0 "">
  <1430 1090 1430 1150 "" 0 0 0 "">
  <1490 1090 1490 1150 "" 0 0 0 "">
  <1390 1180 1430 1180 "" 0 0 0 "">
  <1390 1180 1390 1220 "" 0 0 0 "">
  <1390 1280 1390 1330 "" 0 0 0 "">
  <550 1500 550 1540 "" 0 0 0 "">
  <1250 1360 1250 1420 "" 0 0 0 "">
  <1390 1330 1440 1330 "" 0 0 0 "">
  <1520 1520 1520 1530 "" 0 0 0 "">
  <2046 1327 2046 1330 "" 0 0 0 "">
  <2046 1330 2060 1330 "" 0 0 0 "">
  <1986 1327 1986 1330 "" 0 0 0 "">
  <1970 1330 1986 1330 "" 0 0 0 "">
  <896 1330 907 1330 "" 0 0 0 "">
  <896 1327 896 1330 "" 0 0 0 "">
  <740 1330 760 1330 "" 0 0 0 "">
  <836 1327 836 1330 "" 0 0 0 "">
  <820 1330 836 1330 "" 0 0 0 "">
  <1500 1330 1520 1330 "" 0 0 0 "">
  <1546 1330 1546 1333 "" 0 0 0 "">
  <1186 1330 1220 1330 "" 0 0 0 "">
  <1186 1330 1186 1333 "" 0 0 0 "">
  <1519 1374 1520 1374 "" 0 0 0 "">
  <1520 1330 1546 1330 "" 0 0 0 "">
  <1520 1330 1520 1374 "" 0 0 0 "">
  <1519 1434 1520 1434 "" 0 0 0 "">
  <1520 1434 1520 1460 "" 0 0 0 "">
  <550 1330 550 1440 "" 0 0 0 "">
  <550 1330 590 1330 "" 0 0 0 "">
  <650 1330 680 1330 "" 0 0 0 "">
  <907 1323 907 1330 "" 0 0 0 "">
  <907 1323 916 1323 "" 0 0 0 "">
  <976 1330 1010 1330 "" 0 0 0 "">
  <976 1323 976 1330 "" 0 0 0 "">
  <1010 1520 1010 1540 "" 0 0 0 "">
  <1010 1520 1020 1520 "" 0 0 0 "">
  <1126 1330 1126 1333 "" 0 0 0 "">
  <1110 1330 1126 1330 "" 0 0 0 "">
  <1010 1330 1050 1330 "" 0 0 0 "">
  <2120 1330 2160 1330 "" 0 0 0 "">
  <2190 1360 2190 1420 "" 0 0 0 "">
  <2220 1330 2240 1330 "" 0 0 0 "">
  <2440 1330 2510 1330 "" 0 0 0 "">
  <2510 1330 2510 1340 "" 0 0 0 "">
  <2510 1400 2510 1440 "" 0 0 0 "">
  <2300 1330 2380 1330 "" 0 0 0 "">
  <2380 1390 2380 1470 "" 0 0 0 "">
  <2380 1740 2380 1760 "" 0 0 0 "">
  <2380 1650 2380 1680 "" 0 0 0 "">
  <1280 1330 1306 1330 "" 0 0 0 "">
  <1306 1330 1306 1333 "" 0 0 0 "">
  <1366 1330 1390 1330 "" 0 0 0 "">
  <1366 1330 1366 1333 "" 0 0 0 "">
  <1714 1330 1910 1330 "" 0 0 0 "">
  <1714 1327 1714 1330 "" 0 0 0 "">
  <1606 1333 1654 1333 "" 0 0 0 "">
  <1654 1327 1654 1333 "" 0 0 0 "">
  <1010 1380 1020 1380 "" 0 0 0 "">
  <1010 1330 1010 1380 "" 0 0 0 "">
  <1020 1440 1020 1460 "" 0 0 0 "">
</Wires>
<Diagrams>
  <Smith 1390 780 605 605 3 #c0c0c0 1 00 1 0 1 1 1 0 4 1 1 0 1 1 315 0 225 "" "" "" "">
	<"S[5,5]" #0000ff 2 3 0 0 0>
	  <Mkr 4.10133e+08 -269 -247 3 0 0 1>
	<"S[6,6]" #ff0000 2 3 0 0 0>
	  <Mkr 4.10133e+08 -68 0 3 0 0 1>
  </Smith>
  <Tab 346 966 261 70 3 #c0c0c0 1 00 1 0 1 1 1 0 1 1 1 0 1 1 315 0 225 "" "" "" "">
	<"gain" #0000ff 0 3 1 0 0>
	<"input_rl" #0000ff 0 3 1 0 0>
	<"output_rl" #0000ff 0 3 1 0 0>
  </Tab>
  <Tab 260 2811 632 521 3 #c0c0c0 1 00 1 197 1 1 1 0 1 1 1 0 1 400 315 0 225 "" "" "" "">
	<"S[3,3]" #0000ff 0 3 0 0 0>
	<"S[4,4]" #0000ff 0 3 0 0 0>
	<"S[4,3]" #0000ff 0 3 0 0 0>
	<"S[3,4]" #0000ff 0 3 0 0 0>
  </Tab>
  <Smith 390 2223 572 572 3 #c0c0c0 1 00 1 0 1 1 1 0 4 1 1 0 1 1 315 0 225 "" "" "" "">
	<"S[3,3]" #00007f 2 3 0 0 0>
	<"S[4,4]" #aa0000 2 3 0 0 0>
  </Smith>
  <Rect 1050 2709 903 409 3 #c0c0c0 1 00 0 3.8e+08 2e+07 5.2e+08 0 18 0.5 28 1 -1 0.2 1 315 0 225 "" "" "" "">
	<"S43_dB" #0000ff 2 3 0 0 0>
  </Rect>
  <Rect 1360 2189 1262 374 3 #c0c0c0 1 00 0 3e+08 1e+07 6e+08 1 -21.3916 5 1.83432 1 -1 0.2 1 315 0 225 "" "" "" "">
	<"S33_dB" #00007f 2 3 0 0 0>
	  <Mkr 4.93057e+08 552 -106 3 0 0>
	  <Mkr 4.84566e+08 846 -83 3 0 0>
	<"S44_dB" #aa0000 2 3 0 0 0>
	<"y" #000000 2 3 0 2 0>
	  <Mkr 5.14049e+08 900 -177 3 0 0>
  </Rect>
  <Rect 2030 2689 878 419 3 #c0c0c0 1 00 1 0 0.2 1 1 -0.1 0.5 1.1 1 -0.1 0.5 1.1 315 0 225 "" "" "" "">
	<"S43_dB" #0000ff 2 3 0 0 0>
	  <Mkr 4.90494e+08 308 -408 3 0 0>
	  <Mkr 5.12266e+08 681 -350 3 0 0>
	  <Mkr 5.07835e+08 678 -403 3 0 0>
  </Rect>
</Diagrams>
<Paintings>
  <Rectangle 710 30 1390 850 #00aa00 2 2 #55ffff 5 0>
  <Text 850 940 25 #000000 0 "Matching in final board">
</Paintings>
