<Qucs Schematic 0.0.20>
<Properties>
  <View=39,-45,2301,1709,1.00225,0,480>
  <Grid=10,10,1>
  <DataSet=pa.dat>
  <DataDisplay=pa.dpl>
  <OpenDisplay=1>
  <Script=pa.m>
  <RunScript=0>
  <showFrame=0>
  <FrameText0=Title>
  <FrameText1=Drawn By:>
  <FrameText2=Date:>
  <FrameText3=Revision:>
</Properties>
<Symbol>
</Symbol>
<Components>
  <GND *8 5 270 1390 0 0 0 0>
  <Pac P5 1 150 1320 18 -26 0 1 "5" 1 "50 Ohm" 1 "0 dBm" 0 "1000 MHz" 0 "26.85" 0>
  <Pac P6 1 370 1320 18 -26 0 1 "6" 1 "50 Ohm" 1 "0 dBm" 0 "1000 MHz" 0 "26.85" 0>
  <Eqn Eqn3 1 780 1260 -28 15 0 0 "S66_dB=dB(S[6,6])" 1 "S65_dB=dB(S[6,5])" 1 "S56_dB=dB(S[5,6])" 1 "S55_dB=dB(S[5,5])" 1 "yes" 0>
  <SPfile v020 1 270 1260 -26 -55 0 0 "SKY66292_11_sparam_de_embedded.S2P" 1 "rectangular" 0 "linear" 0 "open" 0 "2" 0>
  <GND *6 5 240 160 0 0 0 0>
  <Pac P3 1 120 90 18 -26 0 1 "3" 1 "50 Ohm" 1 "0 dBm" 0 "1000 MHz" 0 "26.85" 0>
  <Pac P4 1 340 90 18 -26 0 1 "4" 1 "50 Ohm" 1 "0 dBm" 0 "1000 MHz" 0 "26.85" 0>
  <SPfile PA 1 240 30 -26 -55 0 0 "SKY66394_11-vna.s2p" 1 "rectangular" 0 "linear" 0 "open" 0 "2" 0>
  <Eqn Eqn1 1 300 240 -28 15 0 0 "S33_dB=dB(S[3,3])" 1 "S43_dB=dB(S[4,3])+40" 1 "S34_dB=dB(S[3,4])" 1 "S44_dB=dB(S[4,4])" 1 "yes" 0>
  <.SP SP1 1 120 550 0 68 0 0 "log" 1 "2000 MHz" 1 "2600 MHz" 1 "1000" 1 "no" 0 "1" 0 "2" 0 "no" 0 "no" 0>
  <GND *7 5 270 1160 0 0 0 0>
  <Pac P1 1 150 1090 18 -26 0 1 "1" 1 "50 Ohm" 1 "0 dBm" 0 "1000 MHz" 0 "26.85" 0>
  <Pac P2 1 370 1090 18 -26 0 1 "2" 1 "50 Ohm" 1 "0 dBm" 0 "1000 MHz" 0 "26.85" 0>
  <Eqn Eqn2 1 780 1050 -28 15 0 0 "S22_dB=dB(S[2,2])" 1 "S21_dB=dB(S[2,1])" 1 "S12_dB=dB(S[1,2])" 1 "S11_dB=dB(S[1,1])" 1 "yes" 0>
  <SPfile v030 1 270 1030 -26 -55 0 0 "SKY66294_11_sparam_de_embededed.S2P" 1 "rectangular" 0 "linear" 0 "open" 0 "2" 0>
</Components>
<Wires>
  <370 1350 370 1390 "" 0 0 0 "">
  <270 1390 370 1390 "" 0 0 0 "">
  <150 1390 270 1390 "" 0 0 0 "">
  <150 1350 150 1390 "" 0 0 0 "">
  <270 1290 270 1390 "" 0 0 0 "">
  <370 1260 370 1290 "" 0 0 0 "">
  <300 1260 370 1260 "" 0 0 0 "">
  <150 1260 150 1290 "" 0 0 0 "">
  <150 1260 240 1260 "" 0 0 0 "">
  <340 120 340 160 "" 0 0 0 "">
  <240 160 340 160 "" 0 0 0 "">
  <120 160 240 160 "" 0 0 0 "">
  <120 120 120 160 "" 0 0 0 "">
  <240 60 240 160 "" 0 0 0 "">
  <340 30 340 60 "" 0 0 0 "">
  <270 30 340 30 "" 0 0 0 "">
  <120 30 120 60 "" 0 0 0 "">
  <120 30 210 30 "" 0 0 0 "">
  <370 1120 370 1160 "" 0 0 0 "">
  <270 1160 370 1160 "" 0 0 0 "">
  <150 1160 270 1160 "" 0 0 0 "">
  <150 1120 150 1160 "" 0 0 0 "">
  <270 1060 270 1160 "" 0 0 0 "">
  <370 1030 370 1060 "" 0 0 0 "">
  <300 1030 370 1030 "" 0 0 0 "">
  <150 1030 150 1060 "" 0 0 0 "">
  <150 1030 240 1030 "" 0 0 0 "">
</Wires>
<Diagrams>
  <Rect 480 411 641 401 3 #c0c0c0 1 00 1 2e+09 5e+07 2.6e+09 1 -37.6739 5 -6.96047 1 -1 0.2 1 315 0 225 "" "" "" "">
	<"S33_dB" #0055ff 2 3 0 0 0>
	<"S44_dB" #ff0000 2 3 0 0 0>
  </Rect>
  <Smith 1910 354 344 344 3 #c0c0c0 1 00 1 0 1 1 1 0 4 1 1 0 1 1 315 0 225 "" "" "" "">
	<"S[3,3]" #0000ff 0 3 0 0 0>
	<"S[4,4]" #ff0000 0 3 0 0 0>
  </Smith>
  <Smith 510 904 344 344 3 #c0c0c0 1 00 1 0 1 1 1 0 4 1 1 0 1 1 315 0 225 "" "" "" "">
	<"S[1,1]" #0000ff 2 3 0 0 0>
	<"S[2,2]" #ff0000 2 3 0 0 0>
	<"S[6,6]" #ff00ff 2 3 0 0 0>
	<"S[5,5]" #00ff00 2 3 0 0 0>
  </Smith>
  <Rect 1180 417 685 407 3 #c0c0c0 1 00 1 0 0.2 1 1 -0.1 0.5 1.1 1 -0.1 0.5 1.1 315 0 225 "" "" "" "">
	<"S43_dB" #0000ff 2 3 0 0 0>
  </Rect>
  <Rect 1050 967 685 407 3 #c0c0c0 1 00 1 2e+09 5e+07 2.6e+09 1 23.3484 2 38.7611 1 -1 0.2 1 315 0 225 "" "" "" "">
	<"S21_dB" #0000ff 2 3 0 0 0>
	<"S65_dB" #ff0000 2 3 0 0 0>
  </Rect>
</Diagrams>
<Paintings>
</Paintings>
