<Qucs Schematic 2.1.0>
<Properties>
  <View=-49,-582,2887,1716,1.03004,217,1155>
  <Grid=10,10,1>
  <DataSet=tx-chain.dat>
  <DataDisplay=tx-chain.dpl>
  <OpenDisplay=1>
  <Script=tx-chain.m>
  <RunScript=0>
  <showFrame=0>
  <FrameText0=Title>
  <FrameText1=Drawn By:>
  <FrameText2=Date:>
  <FrameText3=Revision:>
</Properties>
<Symbol>
</Symbol>
<Components>
  <SPfile X14 1 350 520 -82 -93 0 3 "1720BL15B0200.s3p" 1 "rectangular" 0 "linear" 0 "open" 0 "3" 0>
  <GND * 5 270 520 0 0 0 3>
  <Pac P1 1 220 530 -104 -26 1 1 "1" 1 "200 Ohm" 1 "0 dBm" 0 "1000 MHz" 0 "26.85" 0>
  <C C31 1 460 480 -26 10 0 0 "100pF" 1 "" 0 "neutral" 0>
  <SPfile X5 1 760 480 -86 -66 0 0 "QPA0363A_De-embedded_SPARAM.s2p" 1 "rectangular" 0 "linear" 0 "open" 0 "2" 0>
  <C C32 1 870 480 -26 10 0 0 "100pF" 1 "" 0 "neutral" 0>
  <SPfile X9 1 550 480 -26 -59 0 0 "saw-filter.s2p" 1 "rectangular" 0 "linear" 0 "open" 0 "2" 0>
  <GND * 5 550 540 0 0 0 0>
  <GND * 5 760 540 0 0 0 0>
  <GND * 1 960 540 0 0 0 0>
  <SPfile X15 1 960 480 -68 89 0 0 "saw-filter.s2p" 1 "rectangular" 0 "linear" 0 "open" 0 "2" 0>
  <C C33 1 1050 480 -26 10 0 0 "100pF" 1 "" 0 "neutral" 0>
  <SPfile X17 1 1260 480 -65 97 0 0 "LFCG-2250+.s2p" 1 "rectangular" 0 "linear" 0 "open" 0 "2" 0>
  <GND * 1 1260 540 0 0 0 0>
  <SPfile X16 1 1130 480 -48 -75 0 0 "SKY66292_11_sparam_de_embedded.S2P" 1 "rectangular" 0 "linear" 0 "open" 0 "2" 0>
  <GND * 1 1130 540 0 0 0 0>
  <SPfile X18 1 1410 530 51 -26 0 3 "F2972_RF2_ON_EN_1_VCTL_1_50Ohms.s3p" 1 "rectangular" 0 "linear" 0 "open" 0 "3" 0>
  <GND * 1 1580 450 0 0 0 0>
  <Pac P6 1 1520 440 -34 -89 1 2 "6" 1 "50 Ohm" 1 "0 dBm" 0 "1000 MHz" 0 "26.85" 0>
  <GND *22 5 1440 780 0 0 0 0>
  <Pac P2 1 1440 710 18 -26 0 1 "2" 1 "50 Ohm" 1 "0 dBm" 0 "1000 MHz" 0 "26.85" 0>
  <C C34 1 1440 620 10 -38 0 1 "100pF" 1 "" 0 "neutral" 0>
  <C C29 1 670 480 -26 10 0 0 "100pF" 1 "" 0 "neutral" 0>
  <GND *23 5 420 960 0 0 0 0>
  <SPfile X12 1 420 900 -26 -89 0 0 "2450BL15B050.s3p" 1 "rectangular" 0 "linear" 0 "open" 0 "3" 0>
  <Pac P3 1 240 980 -95 -36 1 1 "3" 1 "50 Ohm" 1 "0 dBm" 0 "1000 MHz" 0 "26.85" 0>
  <C C35 1 310 930 -26 10 0 0 "100pF" 1 "" 0 "neutral" 0>
  <C C36 1 310 1020 -26 10 0 0 "100pF" 1 "" 0 "neutral" 0>
  <SPfile BPF1 1 610 790 -108 -68 0 0 "DEA142450BT-3028A1.s2p" 1 "rectangular" 0 "linear" 0 "open" 0 "2" 0>
  <GND *24 5 610 880 0 0 0 0>
  <SPfile X13 1 740 860 51 -26 0 3 "F2972_RF2_ON_EN_1_VCTL_1_50Ohms.s3p" 1 "rectangular" 0 "linear" 0 "open" 0 "3" 0>
  <SPfile X20 1 980 940 -63 60 0 1 "2450BL15B050.s3p" 1 "rectangular" 0 "linear" 0 "open" 0 "3" 0>
  <GND * 1 1070 950 0 0 0 0>
  <Pac P4 1 1180 940 26 -33 0 1 "4" 1 "135 Ohm" 1 "0 dBm" 0 "1000 MHz" 0 "26.85" 0>
  <GND * 1 870 780 0 0 0 0>
  <Pac P5 1 810 770 -34 -89 1 2 "5" 1 "50 Ohm" 1 "0 dBm" 0 "1000 MHz" 0 "26.85" 0>
  <Eqn Eqn3 1 90 650 -32 18 0 0 "S11_abs=abs(S[1,1])" 1 "mu=Mu(S)" 1 "rollet=Rollet(S)" 1 "yes" 0>
  <.SP SP1 1 50 -10 0 84 0 0 "log" 1 "500 MHz" 1 "4000 MHz" 1 "1000" 1 "no" 0 "1" 0 "2" 0 "no" 0 "no" 0>
  <Eqn Eqn1 1 80 200 -28 15 0 0 "S21_dB=dB(S[2,1])" 1 "S11_dB=dB(S[1,1])" 1 "S22_dB=dB(S[2,2])" 1 "S12_dB=dB(S[1,2])" 1 "yes" 0>
  <Eqn Eqn2 1 90 340 -28 15 0 0 "S43_dB=dB(S[4,3])" 1 "S33_dB=dB(S[3,3])" 1 "S44_dB=dB(S[4,4])" 1 "S34_dB=dB(S[3,4])" 1 "yes" 0>
  <Attenuator X21 1 850 980 -26 21 0 0 "15 dB" 1 "50 Ohm" 0 "26.85" 0>
</Components>
<Wires>
  <270 520 290 520 "" 0 0 0 "">
  <380 550 380 580 "" 0 0 0 "">
  <220 580 380 580 "" 0 0 0 "">
  <320 480 320 490 "" 0 0 0 "">
  <220 480 320 480 "" 0 0 0 "">
  <220 480 220 500 "" 0 0 0 "">
  <220 560 220 580 "" 0 0 0 "">
  <380 480 380 490 "" 0 0 0 "">
  <380 480 430 480 "" 0 0 0 "">
  <490 480 520 480 "" 0 0 0 "">
  <790 480 840 480 "" 0 0 0 "">
  <550 510 550 540 "" 0 0 0 "">
  <760 510 760 540 "" 0 0 0 "">
  <900 480 930 480 "" 0 0 0 "">
  <960 510 960 540 "" 0 0 0 "">
  <990 480 1020 480 "" 0 0 0 "">
  <1080 480 1100 480 "" 0 0 0 "">
  <1260 510 1260 530 "" 0 0 0 "">
  <1160 480 1230 480 "" 0 0 0 "">
  <1130 510 1130 540 "" 0 0 0 "">
  <1260 530 1260 540 "" 0 0 0 "">
  <1260 530 1350 530 "" 0 0 0 "">
  <1290 480 1380 480 "" 0 0 0 "">
  <1380 480 1380 500 "" 0 0 0 "">
  <1440 440 1440 500 "" 0 0 0 "">
  <1440 440 1490 440 "" 0 0 0 "">
  <1580 440 1580 450 "" 0 0 0 "">
  <1550 440 1580 440 "" 0 0 0 "">
  <1440 740 1440 780 "" 0 0 0 "">
  <1440 560 1440 590 "" 0 0 0 "">
  <1440 650 1440 680 "" 0 0 0 "">
  <700 480 730 480 "" 0 0 0 "">
  <580 480 640 480 "" 0 0 0 "">
  <480 870 480 1020 "" 0 0 0 "">
  <450 870 480 870 "" 0 0 0 "">
  <360 870 390 870 "" 0 0 0 "">
  <240 1020 280 1020 "" 0 0 0 "">
  <240 1010 240 1020 "" 0 0 0 "">
  <240 930 280 930 "" 0 0 0 "">
  <240 930 240 950 "" 0 0 0 "">
  <340 930 390 930 "" 0 0 0 "">
  <340 1020 480 1020 "" 0 0 0 "">
  <360 790 360 870 "" 0 0 0 "">
  <360 790 580 790 "" 0 0 0 "">
  <610 820 610 860 "" 0 0 0 "">
  <610 860 610 880 "" 0 0 0 "">
  <610 860 680 860 "" 0 0 0 "">
  <640 790 710 790 "" 0 0 0 "">
  <710 790 710 830 "" 0 0 0 "">
  <1040 940 1070 940 "" 0 0 0 "">
  <1070 940 1070 950 "" 0 0 0 "">
  <950 890 950 910 "" 0 0 0 "">
  <950 890 1180 890 "" 0 0 0 "">
  <1180 890 1180 910 "" 0 0 0 "">
  <1010 970 1010 990 "" 0 0 0 "">
  <1010 990 1180 990 "" 0 0 0 "">
  <1180 970 1180 990 "" 0 0 0 "">
  <870 770 870 780 "" 0 0 0 "">
  <840 770 870 770 "" 0 0 0 "">
  <770 770 770 830 "" 0 0 0 "">
  <770 770 780 770 "" 0 0 0 "">
  <950 970 950 980 "" 0 0 0 "">
  <880 980 950 980 "" 0 0 0 "">
  <770 890 770 980 "" 0 0 0 "">
  <770 980 820 980 "" 0 0 0 "">
</Wires>
<Diagrams>
  <Rect 250 245 504 265 3 #c0c0c0 1 00 1 5e+08 1e+09 8e+09 0 -60 10 48 1 -1 0.5 1 315 0 225 0 0 0 "" "" "">
	<"S21_dB" #0000ff 2 3 0 0 0>
  </Rect>
  <Rect 840 260 614 280 3 #c0c0c0 1 00 1 0 0.2 1 1 -0.1 0.5 1.1 1 -0.1 0.5 1.1 315 0 225 0 0 0 "" "" "">
	<"S11_dB" #0000ff 2 3 0 0 0>
	<"S22_dB" #ff0000 2 3 0 0 0>
  </Rect>
  <Rect 50 -67 1412 373 3 #c0c0c0 1 00 0 1.5e+09 5e+07 3e+09 0 -60 10 50 1 -1 0.2 1 315 0 225 0 0 0 "" "" "">
	<"S21_dB" #0000ff 2 3 0 0 0>
	  <Mkr 2.25194e+09 341 -455 3 0 0>
	  <Mkr 2.10683e+09 563 -76 3 0 0>
	  <Mkr 1.82117e+09 70 -344 3 0 0>
	  <Mkr 2.37718e+09 805 -82 3 0 0>
	  <Mkr 2.68221e+09 1012 -297 3 0 0>
	  <Mkr 2.17365e+09 331 -339 3 0 0>
	  <Mkr 2.29931e+09 792 -495 3 0 0>
	  <Mkr 2.46793e+09 844 -291 3 0 0>
  </Rect>
  <Rect 150 1612 1121 242 3 #c0c0c0 1 00 1 0 0.2 1 1 -0.1 0.5 1.1 1 -0.1 0.5 1.1 315 0 225 0 0 0 "" "" "">
	<"S33_dB" #0000ff 2 3 0 0 0>
	<"S44_dB" #ff0000 2 3 0 0 0>
  </Rect>
  <Rect 150 1300 1119 230 3 #c0c0c0 1 00 1 0 0.2 1 1 -0.1 0.5 1.1 1 -0.1 0.5 1.1 315 0 225 0 0 0 "" "" "">
	<"S43_dB" #0000ff 2 3 0 0 0>
	  <Mkr 4e+09 575 -119 3 0 0>
	  <Mkr 4e+09 918 -108 3 0 0>
	  <Mkr 2.39705e+09 415 -303 3 0 0>
	  <Mkr 2.47823e+09 757 -243 3 0 0>
  </Rect>
  <Rect 1590 982 1241 417 3 #c0c0c0 1 00 1 5e+08 2e+08 8e+09 0 -10 10 100 1 -1 0.2 1 315 0 225 0 0 0 "" "" "">
	<"rollet" #005500 2 3 0 0 0>
  </Rect>
  <Rect 1590 1520 1250 430 3 #c0c0c0 1 00 1 5e+08 2e+08 4e+09 0 0 1 10 1 -1 0.2 1 315 0 225 0 0 0 "" "" "">
	<"mu" #005500 2 3 0 0 0>
  </Rect>
  <Rect 1590 317 1235 407 3 #c0c0c0 1 00 1 5e+08 5e+08 8e+09 1 -0.125425 0.2 2.2 1 -1 0.2 1 315 0 225 0 0 0 "" "" "">
	<"S11_abs" #005500 2 3 0 0 0>
  </Rect>
</Diagrams>
<Paintings>
  <Text 310 350 20 #ff0000 0 "After RF-Mixer">
  <Text 290 660 20 #ff0000 0 "Before RF-Mixer">
  <Text 2120 -150 20 #ff0000 0 "|S11| < 1">
  <Text 1560 1030 20 #ff0000 0 "Mu > 1: unconditionaly">
  <Text 2710 520 20 #ff0000 0 "k > 1">
</Paintings>
